.component NeoAxis.Component_Material
{
	EditorDocumentConfiguration = "\xfeff<?xml version=\"1.0\" encoding=\"utf-16\"?><KD V=\"1\"><DGD /><DM N=\"DockingManager\" C=\"2\"><DW N=\"DockingWorkspace\" O=\"0\" S=\"894, 839\"><KW V=\"1\" A=\"96512BD8370E491C1995F09BD31913CC\"><CGD /><WS UN=\"7B5B189060F74375EC837556263C23DE\" S=\"T,0,50:T,0,50\" D=\"Horizontal\"><WC UN=\"294B676CF1E64650EFA90C81AC35A0B0\" S=\"T,0,50:T,0,50\" NM=\"BarTabGroup\" AR=\"True\" SP=\"96512BD8370E491C1995F09BD31913CC\"><KP UN=\"A451E7CAEAA741A6399251F5FA7783CD\" S=\"False\"><CPD ObjPath=\"\" /></KP><KP UN=\"96512BD8370E491C1995F09BD31913CC\" S=\"False\"><CPD ObjPath=\"$Shader graph\" /></KP></WC></WS></KW></DW><DF N=\"DockingFloating\" C=\"0\"></DF></DM></KD>"
	Metallic = 0.525
	Roughness = 0.755
	Reflectance = 0.24
	BaseColor
	{
		GetByReference = "this:$Shader graph\\$Node Texture Sample 1\\$Texture Sample\\RGBA"
	}
	.component NeoAxis.Component_FlowGraph
	{
		Name = Shader graph
		EditorScrollPosition = 0 0
		Specialization
		{
			GetByReference = NeoAxis.Component_FlowGraphSpecialization_Shader|Instance
		}
		.component NeoAxis.Component_FlowGraphNode
		{
			Name = "Node "
			Position = 10 -7
			ControlledObject
			{
				GetByReference = "this:..\\.."
			}
		}
		.component NeoAxis.Component_FlowGraphNode
		{
			Name = Node Texture Sample 1
			Position = -18 -8
			ControlledObject
			{
				GetByReference = "this:$Texture Sample"
			}
			.component NeoAxis.Component_ShaderTextureSample
			{
				Name = Texture Sample
				Location2 = 0 0
				Location3 = 0 0 0
				Texture
				{
					GetByReference = "Import\\Textures\\avion-jouet-metal-jaune-vintage.jpg"
				}
			}
		}
	}
}
