.component NeoAxis.Component_Material
{
	EditorDocumentConfiguration = "\xfeff<?xml version=\"1.0\" encoding=\"utf-16\"?><KD V=\"1\"><DGD /><DM N=\"DockingManager\" C=\"2\"><DW N=\"DockingWorkspace\" O=\"0\" S=\"1176, 839\"><KW V=\"1\" A=\"FC5910E70F2A48C8A7A74B90485C9890\"><CGD /><WS UN=\"31B14EB55F6046FED1AE25C9BAA7EEE1\" S=\"T,0,50:T,0,50\" D=\"Horizontal\"><WC UN=\"58C7FB54B5C045B1888E26DE1A4B30D7\" S=\"T,0,50:T,0,50\" NM=\"BarTabGroup\" AR=\"True\" SP=\"FC5910E70F2A48C8A7A74B90485C9890\"><KP UN=\"C8842760406F472FD299457DFB77274E\" S=\"False\"><CPD ObjPath=\"\" /></KP><KP UN=\"FC5910E70F2A48C8A7A74B90485C9890\" S=\"False\"><CPD ObjPath=\"$Shader graph\" /></KP></WC></WS></KW></DW><DF N=\"DockingFloating\" C=\"0\"></DF></DM></KD>"
	BaseColor
	{
		GetByReference = "this:$Shader graph\\$Node Texture Sample 1\\$Texture Sample\\RGBA"
	}
	.component NeoAxis.Component_FlowGraph
	{
		Name = Shader graph
		EditorScrollPosition = 0 0
		Specialization
		{
			GetByReference = NeoAxis.Component_FlowGraphSpecialization_Shader|Instance
		}
		.component NeoAxis.Component_FlowGraphNode
		{
			Name = "Node "
			Position = 10 -7
			ControlledObject
			{
				GetByReference = "this:..\\.."
			}
		}
		.component NeoAxis.Component_FlowGraphNode
		{
			Name = Node Texture Sample 1
			Position = -18 -7
			ControlledObject
			{
				GetByReference = "this:$Texture Sample"
			}
			.component NeoAxis.Component_ShaderTextureSample
			{
				Name = Texture Sample
				Location2 = 0 0
				Location3 = 0 0 0
				Texture
				{
					GetByReference = "Import\\Textures\\Commentaire4.png"
				}
			}
		}
	}
}
